<?xml version="1.0" standalone="no"?>
<!DOCTYPE svg PUBLIC "-//W3C//DTD SVG 20010904//EN"
 "http://www.w3.org/TR/2001/REC-SVG-20010904/DTD/svg10.dtd">
<svg version="1.0" xmlns="http://www.w3.org/2000/svg"
 width="500.000000pt" height="500.000000pt" viewBox="0 0 500.000000 500.000000"
 preserveAspectRatio="xMidYMid meet">
<metadata>
Created by potrace 1.11, written by Peter Selinger 2001-2013
</metadata>
<g transform="translate(0.000000,500.000000) scale(0.100000,-0.100000)"
fill="#000000" stroke="none">
<path d="M1410 2555 l0 -1885 1152 0 c633 0 1148 3 1144 7 -4 5 -421 423 -928
929 -543 544 -918 926 -914 933 5 8 158 11 533 11 347 0 540 4 567 11 80 21
151 42 166 50 8 4 38 17 65 30 47 22 104 59 133 87 7 6 16 12 20 12 4 0 34 26
68 58 108 103 202 254 254 412 46 139 46 417 0 567 -72 237 -250 453 -460 560
-36 18 -70 33 -76 33 -5 0 -30 10 -55 22 -24 12 -66 26 -94 31 -29 6 -376 12
-812 14 l-763 3 0 -1885z"/>
</g>
</svg>
